"Ima Dickson",M,3645312486,"Eum excepteur amet","Libero hi",1974-01-19,"Adipisicing fugiat",Phone
"Ima Dickson",M,3645312486,"Eum excepteur amet","Libero hi",1974-01-19,"Adipisicing fugiat",Phone
"Ima Dickson",M,3645312486,"Eum excepteur amet","Libero hi",1974-01-19,"Adipisicing fugiat",Phone
"Ima Dickson",M,3645312486,"Eum excepteur amet","Libero hi",1974-01-19,"Adipisicing fugiat",Phone
"Ima Dickson",M,3645312486,"Eum excepteur amet","Libero hi",1974-01-19,"Adipisicing fugiat",Phone
"Ima Dickson",M,3645312486,"Eum excepteur amet","Libero hi",1974-01-19,"Adipisicing fugiat",Phone
"Ima Dickson",M,3645312486,"Eum excepteur amet","Libero hi",1974-01-19,"Adipisicing fugiat",Phone
"Ima Dickson",M,3645312486,"Eum excepteur amet","Libero hi",1974-01-19,"Adipisicing fugiat",Phone
"Ima Dickson",M,3645312486,"Eum excepteur amet","Libero hi",1974-01-19,"Adipisicing fugiat",Phone
"Yoko Lewis",F,214565312,"A ut amet in offici","Voluptate qui",1981-09-01,"Ad voluptate adipisc",Email
"Yoko Lewis",F,214565312,"A ut amet in offici","Voluptate qui",1981-09-01,"Ad voluptate adipisc",Email
